{
    "status": {
      "code": 200,
      "message": "Data Berhasil Ditampilkan."
    },
    "data": [
      {
        "penjualan_id": 1,
        "penjualan_no": "PJ/2406-0001",
        "penjualan_pelanggan": "Pelanggan Umum",
        "penjualan_tanggal": "2024-06-27",
        "penjualan_total": 20000,
        "penjualan_total_bayar": 20000,
        "penjualan_total_kembalian": 0,
        "penjualan_cara_bayar": null,
        "created_at": "2024-06-25 09:53:54",
        "created_by": "1462200195@gmail.com",
        "updated_at": "2024-06-25 17:46:12",
        "updated_by": "1462200195@gmail.com",
        "deleted_at": null,
        "deleted_by": null
      },
      {
        "penjualan_id": 2,
        "penjualan_no": "PJ/2406-0002",
        "penjualan_pelanggan": "Pelanggan Umum",
        "penjualan_tanggal": "2024-06-24",
        "penjualan_total": 15000,
        "penjualan_total_bayar": 15000,
        "penjualan_total_kembalian": 0,
        "penjualan_cara_bayar": null,
        "created_at": "2024-06-25 09:54:11",
        "created_by": "1462200195@gmail.com",
        "updated_at": "2024-06-25 17:46:39",
        "updated_by": "1462200195@gmail.com",
        "deleted_at": null,
        "deleted_by": null
      },
      {
        "penjualan_id": 3,
        "penjualan_no": "PJ/2406-0003",
        "penjualan_pelanggan": "Pelanggan Umum",
        "penjualan_tanggal": "2024-06-22",
        "penjualan_total": 35000,
        "penjualan_total_bayar": 40000,
        "penjualan_total_kembalian": 5000,
        "penjualan_cara_bayar": null,
        "created_at": "2024-06-25 12:21:16",
        "created_by": "1462200195@gmail.com",
        "updated_at": "2024-06-25 15:27:03",
        "updated_by": "1462200195@gmail.com",
        "deleted_at": null,
        "deleted_by": null
      },
      {
        "penjualan_id": 4,
        "penjualan_no": "PJ/2406-0004",
        "penjualan_pelanggan": "Pelanggan Umum",
        "penjualan_tanggal": "2024-06-25",
        "penjualan_total": 20000,
        "penjualan_total_bayar": 20000,
        "penjualan_total_kembalian": 0,
        "penjualan_cara_bayar": null,
        "created_at": "2024-06-25 12:45:26",
        "created_by": "1462200195@gmail.com",
        "updated_at": "2024-06-25 15:27:24",
        "updated_by": "1462200195@gmail.com",
        "deleted_at": null,
        "deleted_by": null
      },
      {
        "penjualan_id": 5,
        "penjualan_no": "PJ/2406-0005",
        "penjualan_pelanggan": "Pelanggan Umum ubah",
        "penjualan_tanggal": "2024-06-28",
        "penjualan_total": 820000,
        "penjualan_total_bayar": 1000000,
        "penjualan_total_kembalian": 180000,
        "penjualan_cara_bayar": null,
        "created_at": "2024-06-25 13:01:40",
        "created_by": "1462200195@gmail.com",
        "updated_at": "2024-06-25 16:44:44",
        "updated_by": "1462200195@gmail.com",
        "deleted_at": null,
        "deleted_by": null
      },
      {
        "penjualan_id": 6,
        "penjualan_no": "PJ/2406-0006",
        "penjualan_pelanggan": "Pelanggan Umum",
        "penjualan_tanggal": "2024-06-28",
        "penjualan_total": 15000,
        "penjualan_total_bayar": 20000,
        "penjualan_total_kembalian": 5000,
        "penjualan_cara_bayar": null,
        "created_at": "2024-06-25 13:08:57",
        "created_by": "1462200195@gmail.com",
        "updated_at": "2024-06-25 13:08:57",
        "updated_by": null,
        "deleted_at": null,
        "deleted_by": null
      },
      {
        "penjualan_id": 7,
        "penjualan_no": "PJ/2406-0007",
        "penjualan_pelanggan": "Pelanggan Umum",
        "penjualan_tanggal": "2024-06-22",
        "penjualan_total": 8999,
        "penjualan_total_bayar": 10000,
        "penjualan_total_kembalian": 1001,
        "penjualan_cara_bayar": null,
        "created_at": "2024-06-25 13:58:44",
        "created_by": "1462200195@gmail.com",
        "updated_at": "2024-06-25 13:58:44",
        "updated_by": null,
        "deleted_at": null,
        "deleted_by": null
      },
      {
        "penjualan_id": 8,
        "penjualan_no": "PJ/2406-0008",
        "penjualan_pelanggan": "Pelanggan Umum",
        "penjualan_tanggal": "2024-06-25",
        "penjualan_total": 7000,
        "penjualan_total_bayar": 10000,
        "penjualan_total_kembalian": 3000,
        "penjualan_cara_bayar": null,
        "created_at": "2024-06-25 14:00:25",
        "created_by": "1462200195@gmail.com",
        "updated_at": "2024-06-25 14:00:25",
        "updated_by": null,
        "deleted_at": null,
        "deleted_by": null
      },
      {
        "penjualan_id": 9,
        "penjualan_no": "PJ/2406-0009",
        "penjualan_pelanggan": "Pelanggan Umum",
        "penjualan_tanggal": "2024-06-22",
        "penjualan_total": 7000,
        "penjualan_total_bayar": 10000,
        "penjualan_total_kembalian": 3000,
        "penjualan_cara_bayar": null,
        "created_at": "2024-06-25 14:07:26",
        "created_by": "1462200195@gmail.com",
        "updated_at": "2024-06-25 14:07:26",
        "updated_by": null,
        "deleted_at": null,
        "deleted_by": null
      },
      {
        "penjualan_id": 10,
        "penjualan_no": "PJ/2406-0010",
        "penjualan_pelanggan": "Pelanggan Umum",
        "penjualan_tanggal": "2024-06-21",
        "penjualan_total": 120000,
        "penjualan_total_bayar": 130000,
        "penjualan_total_kembalian": 10000,
        "penjualan_cara_bayar": null,
        "created_at": "2024-06-25 14:10:45",
        "created_by": "1462200195@gmail.com",
        "updated_at": "2024-06-25 14:10:45",
        "updated_by": null,
        "deleted_at": null,
        "deleted_by": null
      }
    ],
    "paging": {
      "page": 1,
      "total_pages": 2,
      "records_per_page": 10,
      "total_records": 15
    },
    "request": {
      "start": 0,
      "limit": 10,
      "filter": null
    }
  }
