## Autogenerated by Scribe. DO NOT MODIFY.

name: Penjualan
description: ''
endpoints:
  -
    httpMethods:
      - POST
    uri: api/penjualan/list
    metadata:
      groupName: Penjualan
      groupDescription: ''
      subgroup: ''
      subgroupDescription: ''
      title: 'Penjualan List'
      description: ''
      authenticated: true
      custom: []
    headers:
      Authorization: 'Bearer 19|Xgbm28zB8HV1te9hkbqKcBfNoJwqBM5bPRlr31qoc3000ca6'
      Content-Type: application/json
      Accept: application/json
    urlParameters: []
    cleanUrlParameters: []
    queryParameters: []
    cleanQueryParameters: []
    bodyParameters:
      start:
        name: start
        description: 'start data.'
        required: true
        example: 0
        type: integer
        enumValues: []
        exampleWasSpecified: true
        custom: []
      limit:
        name: limit
        description: 'limit data.'
        required: true
        example: 10
        type: integer
        enumValues: []
        exampleWasSpecified: true
        custom: []
      filter:
        name: filter
        description: 'Text biasa bisa diisi bisa tidak.'
        required: true
        example: null
        type: string
        enumValues: []
        exampleWasSpecified: true
        custom: []
    cleanBodyParameters:
      start: 0
      limit: 10
      filter: null
    fileParameters: []
    responses:
      -
        status: 200
        content: |
          {
              "status": {
                "code": 200,
                "message": "Data Berhasil Ditampilkan."
              },
              "data": [
                {
                  "penjualan_id": 1,
                  "penjualan_no": "PJ/2406-0001",
                  "penjualan_pelanggan": "Pelanggan Umum",
                  "penjualan_tanggal": "2024-06-27",
                  "penjualan_total": 20000,
                  "penjualan_total_bayar": 20000,
                  "penjualan_total_kembalian": 0,
                  "penjualan_cara_bayar": null,
                  "created_at": "2024-06-25 09:53:54",
                  "created_by": "1462200195@gmail.com",
                  "updated_at": "2024-06-25 17:46:12",
                  "updated_by": "1462200195@gmail.com",
                  "deleted_at": null,
                  "deleted_by": null
                },
                {
                  "penjualan_id": 2,
                  "penjualan_no": "PJ/2406-0002",
                  "penjualan_pelanggan": "Pelanggan Umum",
                  "penjualan_tanggal": "2024-06-24",
                  "penjualan_total": 15000,
                  "penjualan_total_bayar": 15000,
                  "penjualan_total_kembalian": 0,
                  "penjualan_cara_bayar": null,
                  "created_at": "2024-06-25 09:54:11",
                  "created_by": "1462200195@gmail.com",
                  "updated_at": "2024-06-25 17:46:39",
                  "updated_by": "1462200195@gmail.com",
                  "deleted_at": null,
                  "deleted_by": null
                },
                {
                  "penjualan_id": 3,
                  "penjualan_no": "PJ/2406-0003",
                  "penjualan_pelanggan": "Pelanggan Umum",
                  "penjualan_tanggal": "2024-06-22",
                  "penjualan_total": 35000,
                  "penjualan_total_bayar": 40000,
                  "penjualan_total_kembalian": 5000,
                  "penjualan_cara_bayar": null,
                  "created_at": "2024-06-25 12:21:16",
                  "created_by": "1462200195@gmail.com",
                  "updated_at": "2024-06-25 15:27:03",
                  "updated_by": "1462200195@gmail.com",
                  "deleted_at": null,
                  "deleted_by": null
                },
                {
                  "penjualan_id": 4,
                  "penjualan_no": "PJ/2406-0004",
                  "penjualan_pelanggan": "Pelanggan Umum",
                  "penjualan_tanggal": "2024-06-25",
                  "penjualan_total": 20000,
                  "penjualan_total_bayar": 20000,
                  "penjualan_total_kembalian": 0,
                  "penjualan_cara_bayar": null,
                  "created_at": "2024-06-25 12:45:26",
                  "created_by": "1462200195@gmail.com",
                  "updated_at": "2024-06-25 15:27:24",
                  "updated_by": "1462200195@gmail.com",
                  "deleted_at": null,
                  "deleted_by": null
                },
                {
                  "penjualan_id": 5,
                  "penjualan_no": "PJ/2406-0005",
                  "penjualan_pelanggan": "Pelanggan Umum ubah",
                  "penjualan_tanggal": "2024-06-28",
                  "penjualan_total": 820000,
                  "penjualan_total_bayar": 1000000,
                  "penjualan_total_kembalian": 180000,
                  "penjualan_cara_bayar": null,
                  "created_at": "2024-06-25 13:01:40",
                  "created_by": "1462200195@gmail.com",
                  "updated_at": "2024-06-25 16:44:44",
                  "updated_by": "1462200195@gmail.com",
                  "deleted_at": null,
                  "deleted_by": null
                },
                {
                  "penjualan_id": 6,
                  "penjualan_no": "PJ/2406-0006",
                  "penjualan_pelanggan": "Pelanggan Umum",
                  "penjualan_tanggal": "2024-06-28",
                  "penjualan_total": 15000,
                  "penjualan_total_bayar": 20000,
                  "penjualan_total_kembalian": 5000,
                  "penjualan_cara_bayar": null,
                  "created_at": "2024-06-25 13:08:57",
                  "created_by": "1462200195@gmail.com",
                  "updated_at": "2024-06-25 13:08:57",
                  "updated_by": null,
                  "deleted_at": null,
                  "deleted_by": null
                },
                {
                  "penjualan_id": 7,
                  "penjualan_no": "PJ/2406-0007",
                  "penjualan_pelanggan": "Pelanggan Umum",
                  "penjualan_tanggal": "2024-06-22",
                  "penjualan_total": 8999,
                  "penjualan_total_bayar": 10000,
                  "penjualan_total_kembalian": 1001,
                  "penjualan_cara_bayar": null,
                  "created_at": "2024-06-25 13:58:44",
                  "created_by": "1462200195@gmail.com",
                  "updated_at": "2024-06-25 13:58:44",
                  "updated_by": null,
                  "deleted_at": null,
                  "deleted_by": null
                },
                {
                  "penjualan_id": 8,
                  "penjualan_no": "PJ/2406-0008",
                  "penjualan_pelanggan": "Pelanggan Umum",
                  "penjualan_tanggal": "2024-06-25",
                  "penjualan_total": 7000,
                  "penjualan_total_bayar": 10000,
                  "penjualan_total_kembalian": 3000,
                  "penjualan_cara_bayar": null,
                  "created_at": "2024-06-25 14:00:25",
                  "created_by": "1462200195@gmail.com",
                  "updated_at": "2024-06-25 14:00:25",
                  "updated_by": null,
                  "deleted_at": null,
                  "deleted_by": null
                },
                {
                  "penjualan_id": 9,
                  "penjualan_no": "PJ/2406-0009",
                  "penjualan_pelanggan": "Pelanggan Umum",
                  "penjualan_tanggal": "2024-06-22",
                  "penjualan_total": 7000,
                  "penjualan_total_bayar": 10000,
                  "penjualan_total_kembalian": 3000,
                  "penjualan_cara_bayar": null,
                  "created_at": "2024-06-25 14:07:26",
                  "created_by": "1462200195@gmail.com",
                  "updated_at": "2024-06-25 14:07:26",
                  "updated_by": null,
                  "deleted_at": null,
                  "deleted_by": null
                },
                {
                  "penjualan_id": 10,
                  "penjualan_no": "PJ/2406-0010",
                  "penjualan_pelanggan": "Pelanggan Umum",
                  "penjualan_tanggal": "2024-06-21",
                  "penjualan_total": 120000,
                  "penjualan_total_bayar": 130000,
                  "penjualan_total_kembalian": 10000,
                  "penjualan_cara_bayar": null,
                  "created_at": "2024-06-25 14:10:45",
                  "created_by": "1462200195@gmail.com",
                  "updated_at": "2024-06-25 14:10:45",
                  "updated_by": null,
                  "deleted_at": null,
                  "deleted_by": null
                }
              ],
              "paging": {
                "page": 1,
                "total_pages": 2,
                "records_per_page": 10,
                "total_records": 15
              },
              "request": {
                "start": 0,
                "limit": 10,
                "filter": null
              }
            }
        headers: []
        description: ''
        custom: []
      -
        status: 404
        content: |
          {
              "status": {
                  "code": 404,
                  "message": "Data Tidak Ditemukan."
              },
              "data": null,
              "request": {
                  "param_1": 100,
                  "param_2": "example_value"
              }
          }
        headers: []
        description: ''
        custom: []
    responseFields: []
    auth:
      - headers
      - Authorization
      - 'Bearer v1Dfba6hk3aePcVgd56EZ48'
    controller: null
    method: null
    route: null
    custom: []
  -
    httpMethods:
      - GET
    uri: 'api/penjualan/detail/{penjualan_id}'
    metadata:
      groupName: Penjualan
      groupDescription: ''
      subgroup: ''
      subgroupDescription: ''
      title: 'Penjualan Detail'
      description: ''
      authenticated: true
      custom: []
    headers:
      Authorization: 'Bearer 19|Xgbm28zB8HV1te9hkbqKcBfNoJwqBM5bPRlr31qoc3000ca6'
      Content-Type: application/json
      Accept: application/json
    urlParameters:
      penjualan_id:
        name: penjualan_id
        description: 'penjualan_id data dari api/penjualan list.'
        required: true
        example: 2
        type: integer
        enumValues: []
        exampleWasSpecified: true
        custom: []
    cleanUrlParameters:
      penjualan_id: 2
    queryParameters: []
    cleanQueryParameters: []
    bodyParameters: []
    cleanBodyParameters: []
    fileParameters: []
    responses:
      -
        status: 200
        content: |
          {
              "status": {
                  "code": 200,
                  "message": "Request Berhasil."
              },
              "data": {},
              "request": {
                  "xxx_id": 1
              }
          }
        headers: []
        description: ''
        custom: []
      -
        status: 404
        content: |
          {
              "status": {
                  "code": 404,
                  "message": "Data Tidak Ditemukan."
              },
              "data": null,
              "request": {
                  "param_1": 100,
                  "param_2": "example_value"
              }
          }
        headers: []
        description: ''
        custom: []
    responseFields: []
    auth:
      - headers
      - Authorization
      - 'Bearer 581VfZ4vdb36aeEPcgD6kha'
    controller: null
    method: null
    route: null
    custom: []
  -
    httpMethods:
      - POST
    uri: api/penjualan/create
    metadata:
      groupName: Penjualan
      groupDescription: ''
      subgroup: ''
      subgroupDescription: ''
      title: 'Penjualan Create'
      description: ''
      authenticated: true
      custom: []
    headers:
      Authorization: 'Bearer 19|Xgbm28zB8HV1te9hkbqKcBfNoJwqBM5bPRlr31qoc3000ca6'
      Content-Type: application/json
      Accept: application/json
    urlParameters: []
    cleanUrlParameters: []
    queryParameters: []
    cleanQueryParameters: []
    bodyParameters:
      penjualan_pelanggan:
        name: penjualan_pelanggan
        description: 'Text biasa.'
        required: true
        example: null
        type: string
        enumValues: []
        exampleWasSpecified: true
        custom: []
      penjualan_tanggal:
        name: penjualan_tanggal
        description: penjualan_tanggal
        required: true
        example: '2024-06-14'
        type: date
        enumValues: []
        exampleWasSpecified: true
        custom: []
      penjualan_total:
        name: penjualan_total
        description: ''
        required: true
        example: 10000
        type: integer
        enumValues: []
        exampleWasSpecified: true
        custom: []
      penjualan_total_bayar:
        name: penjualan_total_bayar
        description: penjualan_total_bayar
        required: false
        example: 10000
        type: integer
        enumValues: []
        exampleWasSpecified: true
        custom: []
      penjualan_cara_bayar:
        name: penjualan_cara_bayar
        description: 'Contoh [Tunai, Kartu, Kredit, Transfer, skbdn]'
        required: true
        example: Tunai
        type: enum
        enumValues: []
        exampleWasSpecified: true
        custom: []
      penjualan_total_kembalian:
        name: penjualan_total_kembalian
        description: penjualan_total_bayar
        required: false
        example: 10000
        type: integer
        enumValues: []
        exampleWasSpecified: true
        custom: []
      produk_list:
        name: produk_list
        description: 'Detail produk'
        required: false
        example:
          - []
        type: 'object[]'
        enumValues: []
        exampleWasSpecified: false
        custom: []
      'produk_list[].pjual_detail_id':
        name: 'produk_list[].pjual_detail_id'
        description: '(Selalu null, flag create)'
        required: false
        example: 0
        type: integer
        enumValues: []
        exampleWasSpecified: true
        custom: []
      'produk_list[].pjual_detail_produk_id':
        name: 'produk_list[].pjual_detail_produk_id'
        description: 'dari api/produk/list property produk_id'
        required: true
        example: 1
        type: integer
        enumValues: []
        exampleWasSpecified: true
        custom: []
      'produk_list[].pjual_detail_qty':
        name: 'produk_list[].pjual_detail_qty'
        description: ''
        required: true
        example: 1
        type: integer
        enumValues: []
        exampleWasSpecified: true
        custom: []
      'produk_list[].pjual_detail_harga':
        name: 'produk_list[].pjual_detail_harga'
        description: ''
        required: true
        example: 1000
        type: integer
        enumValues: []
        exampleWasSpecified: true
        custom: []
      'produk_list[].pjual_detail_diskon':
        name: 'produk_list[].pjual_detail_diskon'
        description: ''
        required: true
        example: 1
        type: integer
        enumValues: []
        exampleWasSpecified: true
        custom: []
      'produk_list[].pjual_detail_diskon_rp':
        name: 'produk_list[].pjual_detail_diskon_rp'
        description: ''
        required: true
        example: 1000
        type: integer
        enumValues: []
        exampleWasSpecified: true
        custom: []
      'produk_list[].pjual_diskon_subtotal':
        name: 'produk_list[].pjual_diskon_subtotal'
        description: ''
        required: true
        example: 1000
        type: integer
        enumValues: []
        exampleWasSpecified: true
        custom: []
    cleanBodyParameters:
      penjualan_pelanggan: null
      penjualan_tanggal: '2024-06-14'
      penjualan_total: 10000
      penjualan_total_bayar: 10000
      penjualan_cara_bayar: Tunai
      penjualan_total_kembalian: 10000
      produk_list:
        -
          pjual_detail_id: 0
          pjual_detail_produk_id: 1
          pjual_detail_qty: 1
          pjual_detail_harga: 1000
          pjual_detail_diskon: 1
          pjual_detail_diskon_rp: 1000
          pjual_diskon_subtotal: 1000
    fileParameters: []
    responses:
      -
        status: 200
        content: |
          {
              "status": {
                  "code": 200,
                  "message": "Request Berhasil."
              },
              "data": {},
              "request": {
                  "xxx_id": 1
              }
          }
        headers: []
        description: ''
        custom: []
      -
        status: 404
        content: |
          {
              "status": {
                  "code": 404,
                  "message": "Data Tidak Ditemukan."
              },
              "data": null,
              "request": {
                  "param_1": 100,
                  "param_2": "example_value"
              }
          }
        headers: []
        description: ''
        custom: []
    responseFields: []
    auth:
      - headers
      - Authorization
      - 'Bearer 6EdcbkZahv6D1g8PV53afe4'
    controller: null
    method: null
    route: null
    custom: []
  -
    httpMethods:
      - PUT
    uri: api/penjualan/update
    metadata:
      groupName: Penjualan
      groupDescription: ''
      subgroup: ''
      subgroupDescription: ''
      title: 'Penjualan Update'
      description: ''
      authenticated: true
      custom: []
    headers:
      Authorization: 'Bearer 19|Xgbm28zB8HV1te9hkbqKcBfNoJwqBM5bPRlr31qoc3000ca6'
      Content-Type: application/json
      Accept: application/json
    urlParameters: []
    cleanUrlParameters: []
    queryParameters: []
    cleanQueryParameters: []
    bodyParameters:
      penjualan_ida:
        name: penjualan_ida
        description: 'penjualan_ida data dari api/penjualan list.'
        required: true
        example: 2
        type: integer
        enumValues: []
        exampleWasSpecified: true
        custom: []
      penjualan_id:
        name: penjualan_id
        description: 'Text biasa.'
        required: true
        example: 1
        type: integer
        enumValues: []
        exampleWasSpecified: true
        custom: []
      penjualan_pelanggan:
        name: penjualan_pelanggan
        description: 'Text biasa.'
        required: true
        example: null
        type: string
        enumValues: []
        exampleWasSpecified: true
        custom: []
      penjualan_tanggal:
        name: penjualan_tanggal
        description: penjualan_tanggal
        required: true
        example: '2024-06-14'
        type: date
        enumValues: []
        exampleWasSpecified: true
        custom: []
      penjualan_total:
        name: penjualan_total
        description: ''
        required: true
        example: 10000
        type: integer
        enumValues: []
        exampleWasSpecified: true
        custom: []
      penjualan_total_bayar:
        name: penjualan_total_bayar
        description: penjualan_total_bayar
        required: false
        example: 10000
        type: integer
        enumValues: []
        exampleWasSpecified: true
        custom: []
      penjualan_cara_bayar:
        name: penjualan_cara_bayar
        description: 'Contoh [Tunai, Kartu, Kredit, Transfer, skbdn]'
        required: true
        example: Tunai
        type: enum
        enumValues: []
        exampleWasSpecified: true
        custom: []
      penjualan_total_kembalian:
        name: penjualan_total_kembalian
        description: penjualan_total_bayar
        required: false
        example: 10000
        type: integer
        enumValues: []
        exampleWasSpecified: true
        custom: []
      produk_list:
        name: produk_list
        description: 'Detail produk'
        required: false
        example:
          - []
        type: 'object[]'
        enumValues: []
        exampleWasSpecified: false
        custom: []
      'produk_list[].pjual_detail_id':
        name: 'produk_list[].pjual_detail_id'
        description: '(Selalu null, flag create)'
        required: false
        example: 0
        type: integer
        enumValues: []
        exampleWasSpecified: true
        custom: []
      'produk_list[].pjual_detail_produk_id':
        name: 'produk_list[].pjual_detail_produk_id'
        description: 'dari api/produk/list property produk_id'
        required: true
        example: 1
        type: integer
        enumValues: []
        exampleWasSpecified: true
        custom: []
      'produk_list[].pjual_detail_qty':
        name: 'produk_list[].pjual_detail_qty'
        description: ''
        required: true
        example: 1
        type: integer
        enumValues: []
        exampleWasSpecified: true
        custom: []
      'produk_list[].pjual_detail_harga':
        name: 'produk_list[].pjual_detail_harga'
        description: ''
        required: true
        example: 1000
        type: integer
        enumValues: []
        exampleWasSpecified: true
        custom: []
      'produk_list[].pjual_detail_diskon':
        name: 'produk_list[].pjual_detail_diskon'
        description: ''
        required: true
        example: 1
        type: integer
        enumValues: []
        exampleWasSpecified: true
        custom: []
      'produk_list[].pjual_detail_diskon_rp':
        name: 'produk_list[].pjual_detail_diskon_rp'
        description: ''
        required: true
        example: 1000
        type: integer
        enumValues: []
        exampleWasSpecified: true
        custom: []
      'produk_list[].pjual_diskon_subtotal':
        name: 'produk_list[].pjual_diskon_subtotal'
        description: ''
        required: true
        example: 1000
        type: integer
        enumValues: []
        exampleWasSpecified: true
        custom: []
    cleanBodyParameters:
      penjualan_ida: 2
      penjualan_id: 1
      penjualan_pelanggan: null
      penjualan_tanggal: '2024-06-14'
      penjualan_total: 10000
      penjualan_total_bayar: 10000
      penjualan_cara_bayar: Tunai
      penjualan_total_kembalian: 10000
      produk_list:
        -
          pjual_detail_id: 0
          pjual_detail_produk_id: 1
          pjual_detail_qty: 1
          pjual_detail_harga: 1000
          pjual_detail_diskon: 1
          pjual_detail_diskon_rp: 1000
          pjual_diskon_subtotal: 1000
    fileParameters: []
    responses:
      -
        status: 200
        content: |
          {
              "status": {
                  "code": 200,
                  "message": "Request Berhasil."
              },
              "data": {},
              "request": {
                  "xxx_id": 1
              }
          }
        headers: []
        description: ''
        custom: []
      -
        status: 404
        content: |
          {
              "status": {
                  "code": 404,
                  "message": "Data Tidak Ditemukan."
              },
              "data": null,
              "request": {
                  "param_1": 100,
                  "param_2": "example_value"
              }
          }
        headers: []
        description: ''
        custom: []
    responseFields: []
    auth:
      - headers
      - Authorization
      - 'Bearer f84v3Ek6cdg1DZeP56Vbaah'
    controller: null
    method: null
    route: null
    custom: []
  -
    httpMethods:
      - DELETE
    uri: 'api/penjualan/delete/{penjualan_id}'
    metadata:
      groupName: Penjualan
      groupDescription: ''
      subgroup: ''
      subgroupDescription: ''
      title: 'Penjualan Delete'
      description: ''
      authenticated: true
      custom: []
    headers:
      Authorization: 'Bearer 19|Xgbm28zB8HV1te9hkbqKcBfNoJwqBM5bPRlr31qoc3000ca6'
      Content-Type: application/json
      Accept: application/json
    urlParameters:
      penjualan_id:
        name: penjualan_id
        description: 'penjualan_id data dari api/penjualan list.'
        required: true
        example: 2
        type: integer
        enumValues: []
        exampleWasSpecified: true
        custom: []
    cleanUrlParameters:
      penjualan_id: 2
    queryParameters: []
    cleanQueryParameters: []
    bodyParameters: []
    cleanBodyParameters: []
    fileParameters: []
    responses:
      -
        status: 200
        content: |
          {
              "status": {
                  "code": 200,
                  "message": "Request Berhasil."
              },
              "data": {},
              "request": {
                  "xxx_id": 1
              }
          }
        headers: []
        description: ''
        custom: []
      -
        status: 404
        content: |
          {
              "status": {
                  "code": 404,
                  "message": "Data Tidak Ditemukan."
              },
              "data": null,
              "request": {
                  "param_1": 100,
                  "param_2": "example_value"
              }
          }
        headers: []
        description: ''
        custom: []
    responseFields: []
    auth:
      - headers
      - Authorization
      - 'Bearer gevE4aD56fZaPc6k83Vhb1d'
    controller: null
    method: null
    route: null
    custom: []
  -
    httpMethods:
      - GET
    uri: api/penjualan/cetak-list-pdf
    metadata:
      groupName: Penjualan
      groupDescription: ''
      subgroup: ''
      subgroupDescription: ''
      title: ''
      description: ''
      authenticated: true
      custom: []
    headers:
      Authorization: 'Bearer 19|Xgbm28zB8HV1te9hkbqKcBfNoJwqBM5bPRlr31qoc3000ca6'
      Content-Type: application/json
      Accept: application/json
    urlParameters: []
    cleanUrlParameters: []
    queryParameters: []
    cleanQueryParameters: []
    bodyParameters: []
    cleanBodyParameters: []
    fileParameters: []
    responses:
      -
        status: 401
        content: '{"message":"Unauthenticated."}'
        headers:
          cache-control: 'no-cache, private'
          content-type: application/json
          access-control-allow-origin: '*'
        description: null
        custom: []
    responseFields: []
    auth:
      - headers
      - Authorization
      - 'Bearer hakPe1a4f6DEgcdv8bV563Z'
    controller: null
    method: null
    route: null
    custom: []
  -
    httpMethods:
      - GET
    uri: api/penjualan/cetak-list-xls
    metadata:
      groupName: Penjualan
      groupDescription: ''
      subgroup: ''
      subgroupDescription: ''
      title: ''
      description: ''
      authenticated: true
      custom: []
    headers:
      Authorization: 'Bearer 19|Xgbm28zB8HV1te9hkbqKcBfNoJwqBM5bPRlr31qoc3000ca6'
      Content-Type: application/json
      Accept: application/json
    urlParameters: []
    cleanUrlParameters: []
    queryParameters: []
    cleanQueryParameters: []
    bodyParameters: []
    cleanBodyParameters: []
    fileParameters: []
    responses:
      -
        status: 401
        content: '{"message":"Unauthenticated."}'
        headers:
          cache-control: 'no-cache, private'
          content-type: application/json
          access-control-allow-origin: '*'
        description: null
        custom: []
    responseFields: []
    auth:
      - headers
      - Authorization
      - 'Bearer ehD6ZVg1a6PvE5fak8b4d3c'
    controller: null
    method: null
    route: null
    custom: []
  -
    httpMethods:
      - GET
    uri: 'api/penjualan/cetak-faktur-pdf/{penjualan_id}'
    metadata:
      groupName: Penjualan
      groupDescription: ''
      subgroup: ''
      subgroupDescription: ''
      title: 'Penjualan Cetak Faktur'
      description: ''
      authenticated: true
      custom: []
    headers:
      Authorization: 'Bearer 19|Xgbm28zB8HV1te9hkbqKcBfNoJwqBM5bPRlr31qoc3000ca6'
      Content-Type: application/json
      Accept: application/json
    urlParameters:
      penjualan_id:
        name: penjualan_id
        description: 'penjualan_id data dari api/penjualan list.'
        required: true
        example: 2
        type: integer
        enumValues: []
        exampleWasSpecified: true
        custom: []
    cleanUrlParameters:
      penjualan_id: 2
    queryParameters: []
    cleanQueryParameters: []
    bodyParameters: []
    cleanBodyParameters: []
    fileParameters: []
    responses:
      -
        status: 200
        content: |
          {
              "status": {
                  "code": 200,
                  "message": "Request Berhasil."
              },
              "data": {},
              "request": {
                  "xxx_id": 1
              }
          }
        headers: []
        description: ''
        custom: []
      -
        status: 404
        content: |
          {
              "status": {
                  "code": 404,
                  "message": "Data Tidak Ditemukan."
              },
              "data": null,
              "request": {
                  "param_1": 100,
                  "param_2": "example_value"
              }
          }
        headers: []
        description: ''
        custom: []
    responseFields: []
    auth:
      - headers
      - Authorization
      - 'Bearer avZ8Dh6c4g3k1V6adePEf5b'
    controller: null
    method: null
    route: null
    custom: []
